<?xml version="1.0" encoding="UTF-8"?>
<session version="1.0">
<refactoring comment="Delete resource &apos;weathertut&apos;" deleteContents="true" description="Delete resource &apos;weathertut&apos;" element1="/weathertut" flags="7" id="org.eclipse.ltk.core.refactoring.delete.resources" resources="1" stamp="1585858053030"/>
</session>