<?xml version="1.0" encoding="UTF-8"?>
<session version="1.0">
<refactoring comment="Delete resource &apos;discordbot&apos;" deleteContents="true" description="Delete resource &apos;discordbot&apos;" element1="/discordbot" flags="7" id="org.eclipse.ltk.core.refactoring.delete.resources" resources="1" stamp="1590516467150"/>
</session>